…
```r
station_averages_rep <- station_averages_rep %>% group_by(STATE) %>% filter(row_number(STATE) == 1)
station_averages_rep_table <- station_averages_rep[-c(1:9,11:14), c("USAFID","STATE","eudist_sum")]; station_averages_rep_table
```

```
## # A tibble: 35 × 3
## # Groups:   STATE [35]
##    USAFID STATE eudist_sum
##     <int> <chr>      <dbl>
##  1 724180 DE        0     
##  2 720328 WV        0.0161
##  3 725464 IA        0.0449
##  4 720625 OK        0.0834
##  5 722076 IL        0.0882
##  6 726413 WI        0.0905
##  7 720864 NC        0.0955
##  8 722106 FL        0.108 
##  9 722041 LA        0.119 
## 10 723107 SC        0.181 
## # … with 25 more rows
```
…
```r
station_midpoint <- station_midpoint[order(station_midpoint$eudist_lat_lon)]
station_midpoint <- station_midpoint %>% group_by(STATE) %>% filter(row_number(STATE) == 1); station_midpoint
```

```
## # A tibble: 48 × 21
## # Groups:   STATE [48]
##    USAFID  temp wind.sp atm.press temp_dist wind.sp_dist atm.press_dist temp_50
##     <int> <dbl>   <dbl>     <dbl>     <dbl>        <dbl>          <dbl>   <dbl>
##  1 724088  24.7   3.03      1015.     1.04         1.04           0.168    24.6
##  2 724750  27.4   6.71      1012.     3.76         3.76           2.99     24.4
##  3 725975  17.0   2.08      1014.     6.71         6.71           0.281    18.0
##  4 725074  24.5   4.71       NaN      0.774        0.774        NaN        22.5
##  5 725466  21.8   2.72       NaN      1.89         1.89         NaN        21.3
##  6 722570  29.8   3.54      1011.     6.10         6.10           3.26     29.8
##  7 722201  24.2   0.910      NaN      0.502        0.502        NaN        24.7
##  8 726114  17.5   1.17      1015.     6.21         6.21           0.101    18.6
##  9 720928  21.9   2.08       NaN      1.81         1.81         NaN        22.0
## 10 726050  19.9   1.73      1014.     3.82         3.82           0.204    19.6
## # … with 38 more rows, and 13 more variables: CTRY <chr>, STATE <chr>,
## #   wind.sp_50 <dbl>, atm.press_50 <dbl>, eudist_temp_wind.sp <dbl>,
## #   eudist_temp_atm.press <dbl>, eudist_wind.sp_atm.press <dbl>, lat <dbl>,
## #   lon <dbl>, STATE.y <chr>, lat_50 <dbl>, lon_50 <dbl>, eudist_lat_lon <dbl>
```

```r
station_midpoint_table <- station_midpoint[, c("USAFID","STATE","eudist_lat_lon")]; station_midpoint_table
```

```
## # A tibble: 48 × 3
## # Groups:   STATE [48]
##    USAFID STATE eudist_lat_lon
##     <int> <chr>          <dbl>
##  1 724088 DE            0     
##  2 724750 UT            0     
##  3 725975 OR            0     
##  4 725074 RI            0.0210
##  5 725466 IA            0.0260
##  6 722570 TX            0.0382
##  7 722201 NC            0.0490
##  8 726114 VT            0.0611
##  9 720928 OH            0.0646
## 10 726050 NH            0.0730
## # … with 38 more rows
```
…
