…
```r
bigrams <- mtsamples %>%
  unnest_ngrams(output = bigram, input = transcription, n = 3) %>%
  separate(bigram, into = c("w1", "w2"), sep = " ")

# before
bigrams %>%
  filter(w1 == "status") %>%
  select(w1,w2) %>%
  count(w2, sort = TRUE)
```

```
## # A tibble: 98 × 2
##    w2              n
##    <chr>       <int>
##  1 post          783
##  2 intact         53
##  3 and            43
##  4 examination    43
##  5 exam           39
##  6 is             34
##  7 was            27
##  8 the            25
##  9 at             17
## 10 changes        17
## # … with 88 more rows
```

```r
# after
bigrams %>%
  filter(w2 == "status") %>%
  select(w1,w2) %>%
  count(w1, sort = TRUE)
```

```
## # A tibble: 210 × 2
##    w1              n
##    <chr>       <int>
##  1 mental        212
##  2 is             88
##  3 vascular       67
##  4 disease        65
##  5 2              40
##  6 3              33
##  7 performance    27
##  8 1              24
##  9 cancer         24
## 10 diagnosis      20
## # … with 200 more rows
```
…
